com\jtcm\util\ConvertUtil.class
com\jtcm\util\DateTimeUtil.class
com\jtcm\util\NanoClock.class
com\jtcm\core\BlockChainAdapter.class
com\jtcm\sample\SampleChainCodeClient.class
com\jtcm\util\ConfigUtil.class
