C:\dev\workspace\jtcm.telaio.sdk\src\main\java\com\jtcm\core\BlockChainAdapter.java
C:\dev\workspace\jtcm.telaio.sdk\src\main\java\com\jtcm\util\ConvertUtil.java
C:\dev\workspace\jtcm.telaio.sdk\src\main\java\com\jtcm\util\DateTimeUtil.java
C:\dev\workspace\jtcm.telaio.sdk\src\main\java\com\jtcm\util\ConfigUtil.java
C:\dev\workspace\jtcm.telaio.sdk\src\main\java\com\jtcm\sample\SampleChainCodeClient.java
C:\dev\workspace\jtcm.telaio.sdk\src\main\java\com\jtcm\util\NanoClock.java
